{
    "apiVersion": "apps/v1beta1",
    "kind": "StatefulSet",
    "metadata": {
        "name": "mongodb",
        "labels": {
            "version": "v1",
            "app": "mongodb"
        }
    },
    "spec": {
        "serviceName": "mongodb-svc",
        "replicas": 1,
        "volumeClaimTemplates": [{
            "metadata": {
                "name": "kroton-storage"
            },
            "spec": {
                "storageClassName": "standard",
                "accessModes": ["ReadWriteOnce"],
                "resources": {
                    "requests": {
                        "storage": "1Gi"
                    }
                }
            }
        }],
        "template": {
            "metadata": {
                "labels": {
                    "app":"mongodb",
                    "version": "v1"
                }
            },
            "spec": {
                "containers": [{
                    "name": "mongodb",
                    "image": "mongo:3.5",
                    "ports": [{
                        "containerPort": 27017
                    }],
                    "volumeMounts": [{
                        "mountPath": "/data/db",
                        "name": "kroton-storage"
                    }]
                }]
            }
        }
    }
}